…
The survey data, `polymod_survey_data` contains the lower age limit and
the population in that age group.

``` r
polymod_survey_data
#> # A tibble: 21 × 2 (conmat_population)
#>  - age: lower.age.limit
#>  - population: population
#>    lower.age.limit population
#>              <int>      <dbl>
#>  1               0   1898966.
#>  2               5   2017632.
#>  3              10   2192410.
#>  4              15   2369985.
#>  5              20   2467873.
#>  6              25   2484327.
#>  7              30   2649826.
#>  8              35   3043704.
#>  9              40   3117812.
#> 10              45   2879510.
#> # ℹ 11 more rows
```
…
We can then pass the contact model through to `predict_contacts`, along
with the fairfield age population data, and some age breaks that we want
to predict to.

``` r
set.seed(2022 - 09 - 06)
synthetic_contact_fairfield <- predict_contacts(
  model = contact_model,
  population = fairfield,
  age_breaks = c(seq(0, 85, by = 5), Inf)
)

synthetic_contact_fairfield
#> # A tibble: 324 × 3
#>    age_group_from age_group_to contacts
#>    <fct>          <fct>           <dbl>
#>  1 [0,5)          [0,5)         0.00273
#>  2 [0,5)          [5,10)        0.00313
#>  3 [0,5)          [10,15)       0.00349
#>  4 [0,5)          [15,20)       0.00585
#>  5 [0,5)          [20,25)       0.0135 
#>  6 [0,5)          [25,30)       0.0261 
#>  7 [0,5)          [30,35)       0.0354 
#>  8 [0,5)          [35,40)       0.0370 
#>  9 [0,5)          [40,45)       0.0348 
#> 10 [0,5)          [45,50)       0.0316 
#> # ℹ 314 more rows
```
…
Note that you need to use the exact LGA name - you can look up LGA names
in the data set `abs_lga_lookup`:

``` r
abs_lga_lookup
#> # A tibble: 544 × 3
#>    state lga_code lga                  
#>    <chr>    <dbl> <chr>                
#>  1 NSW      10050 Albury (C)           
#>  2 NSW      10180 Armidale Regional (A)
#>  3 NSW      10250 Ballina (A)          
#>  4 NSW      10300 Balranald (A)        
#>  5 NSW      10470 Bathurst Regional (A)
#>  6 NSW      10500 Bayside (A)          
#>  7 NSW      10550 Bega Valley (A)      
#>  8 NSW      10600 Bellingen (A)        
#>  9 NSW      10650 Berrigan (A)         
#> 10 NSW      10750 Blacktown (C)        
#> # ℹ 534 more rows
```
…
