…
Note that you need to use the exact LGA name - you can look up LGA names
in the data set `abs_lga_lookup`:

``` r
abs_lga_lookup
#> # A tibble: 545 × 3
#>    state lga_code lga                  
#>    <chr>    <dbl> <chr>                
#>  1 NSW      10050 Albury (C)           
#>  2 NSW      10180 Armidale Regional (A)
#>  3 NSW      10250 Ballina (A)          
#>  4 NSW      10300 Balranald (A)        
#>  5 NSW      10470 Bathurst Regional (A)
#>  6 NSW      10500 Bayside (A)          
#>  7 NSW      10550 Bega Valley (A)      
#>  8 NSW      10600 Bellingen (A)        
#>  9 NSW      10650 Berrigan (A)         
#> 10 NSW      10750 Blacktown (C)        
#> # … with 535 more rows
```
…
Notably this is about 3 times faster than without using that plan.

## Data sources

This package provides data for use in calculating contact matrices.

These data are still being cleaned and processed, but their current
forms are shown below:

### abs_education_state

``` r
abs_education_state
#> # A tibble: 4,194 × 5
#>     year state aboriginal_and_torres_strait_islander_status   age n_full_and_part…
#>    <dbl> <chr> <chr>                                        <dbl>            <dbl>
#>  1  2006 ACT   Aboriginal and Torres Strait Islander            4                5
#>  2  2006 ACT   Non-Indigenous                                   4              109
#>  3  2006 NSW   Aboriginal and Torres Strait Islander            4              104
#>  4  2006 NSW   Non-Indigenous                                   4             1870
#>  5  2006 NT    Aboriginal and Torres Strait Islander            4              102
#>  6  2006 NT    Non-Indigenous                                   4               63
#>  7  2006 QLD   Aboriginal and Torres Strait Islander            4               37
#>  8  2006 QLD   Non-Indigenous                                   4              740
#>  9  2006 SA    Aboriginal and Torres Strait Islander            4               42
#> 10  2006 SA    Non-Indigenous                                   4             1023
#> # … with 4,184 more rows
```

### abs_education_state_2020

``` r
abs_education_state_2020
#> # A tibble: 808 × 6
#>     year state   age population population_interpolated  prop
#>    <dbl> <chr> <dbl>      <dbl>                   <dbl> <dbl>
#>  1  2020 ACT       0          0                   5569. 0    
#>  2  2020 ACT       1          0                   5702. 0    
#>  3  2020 ACT       2          0                   5781. 0    
#>  4  2020 ACT       3          0                   5814. 0    
#>  5  2020 ACT       4          0                   5809. 0    
#>  6  2020 ACT       5       4558                   5772. 0.790
#>  7  2020 ACT       6       6161                   5710. 1.08 
#>  8  2020 ACT       7       6163                   5623. 1.10 
#>  9  2020 ACT       8       5881                   5510. 1.07 
#> 10  2020 ACT       9       5921                   5370. 1.10 
#> # … with 798 more rows
```

### abs_employ_age_lga

``` r
abs_employ_age_lga
#> # A tibble: 5,600 × 8
#>     year state lga    age_group total_employed total_unemployed total_labour_fo…
#>    <dbl> <chr> <chr>  <fct>              <dbl>            <dbl>            <dbl>
#>  1  2016 NSW   Albur… 15-19               1527              300             1830
#>  2  2016 NSW   Armid… 15-19                838              217             1055
#>  3  2016 NSW   Balli… 15-19               1064              185             1255
#>  4  2016 NSW   Balra… 15-19                 41                9               46
#>  5  2016 NSW   Bathu… 15-19               1103              241             1341
#>  6  2016 NSW   Bega … 15-19                801               97              897
#>  7  2016 NSW   Belli… 15-19                241               42              281
#>  8  2016 NSW   Berri… 15-19                168               16              181
#>  9  2016 NSW   Black… 15-19               7534             2136             9670
#> 10  2016 NSW   Bland… 15-19                124               14              140
#> # … with 5,590 more rows, and 1 more variable: total <dbl>
```

### abs_household_lga

``` r
abs_household_lga
#> # A tibble: 4,968 × 5
#>     year state lga                   n_persons_usually_resident n_households
#>    <dbl> <chr> <chr>                 <chr>                             <dbl>
#>  1  2016 NSW   Albury (C)            total                             19495
#>  2  2016 NSW   Albury (C)            1                                  6020
#>  3  2016 NSW   Albury (C)            2                                  6738
#>  4  2016 NSW   Albury (C)            3                                  2740
#>  5  2016 NSW   Albury (C)            4                                  2541
#>  6  2016 NSW   Albury (C)            5                                  1041
#>  7  2016 NSW   Albury (C)            6                                   311
#>  8  2016 NSW   Albury (C)            7                                    56
#>  9  2016 NSW   Albury (C)            8+                                   42
#> 10  2016 NSW   Armidale Regional (A) total                             10276
#> # … with 4,958 more rows
```

### abs_pop_age_lga_2016

``` r
abs_pop_age_lga_2016
#> # A tibble: 9,792 × 5
#>     year state lga                age_group population
#>    <dbl> <chr> <chr>              <fct>          <dbl>
#>  1  2016 ACT   Unincorporated ACT 0-4            28054
#>  2  2016 ACT   Unincorporated ACT 5-9            25767
#>  3  2016 ACT   Unincorporated ACT 10-14          22170
#>  4  2016 ACT   Unincorporated ACT 15-19          24906
#>  5  2016 ACT   Unincorporated ACT 20-24          32615
#>  6  2016 ACT   Unincorporated ACT 25-29          34243
#>  7  2016 ACT   Unincorporated ACT 30-34          34574
#>  8  2016 ACT   Unincorporated ACT 35-39          30340
#>  9  2016 ACT   Unincorporated ACT 40-44          28387
#> 10  2016 ACT   Unincorporated ACT 45-49          26431
#> # … with 9,782 more rows
```

### abs_pop_age_lga_2020

``` r
abs_pop_age_lga_2020
#> # A tibble: 9,774 × 5
#>     year state lga                age_group population
#>    <dbl> <chr> <chr>              <fct>          <dbl>
#>  1  2020 ACT   Unincorporated ACT 0-4            27861
#>  2  2020 ACT   Unincorporated ACT 5-9            28871
#>  3  2020 ACT   Unincorporated ACT 10-14          26015
#>  4  2020 ACT   Unincorporated ACT 15-19          23867
#>  5  2020 ACT   Unincorporated ACT 20-24          32626
#>  6  2020 ACT   Unincorporated ACT 25-29          33992
#>  7  2020 ACT   Unincorporated ACT 30-34          35734
#>  8  2020 ACT   Unincorporated ACT 35-39          35354
#>  9  2020 ACT   Unincorporated ACT 40-44          30155
#> 10  2020 ACT   Unincorporated ACT 45-49          29103
#> # … with 9,764 more rows
```

### abs_state_age

``` r
abs_state_age
#> # A tibble: 168 × 3
#>    state age_group population
#>    <chr> <fct>          <dbl>
#>  1 NSW   0-4           495060
#>  2 VIC   0-4           401992
#>  3 QLD   0-4           314592
#>  4 SA    0-4            98400
#>  5 WA    0-4           171531
#>  6 TAS   0-4            29258
#>  7 NT    0-4            17766
#>  8 ACT   0-4            27846
#>  9 NSW   5-9           512687
#> 10 VIC   5-9           416633
#> # … with 158 more rows
```
…
