Create Synthetic Contact Matrices • conmat
…
Example

First we want to fit the model to the POLYMOD data, which contains various survey and population data.

library(conmat)
polymod_contact_data <- get_polymod_contact_data(setting = "work")
polymod_survey_data <- get_polymod_population()

The contact data is a data frame containing the age from and to, and the number of contacts for each of the specified settings, “home”, “work”, “school”, “other”, or “all” as well as the number of participants. By default, polymod_contact_data contains data from “all”, but we’re going to use the “work” set of data, as it produces an interesting looking dataset. Each row contains survey information of the number of contacts. Specifically, the number of contacts from one age group to another age group, and then the number of participants in that age group.

The survey data, polymod_survey_data contains the lower age limit and the population in that age group.

polymod_survey_data
#> # A tibble: 21 × 2 (conmat_population)
#>  - age: lower.age.limit
#>  - population: population
#>    lower.age.limit population
#>              <int>      <dbl>
#>  1               0   1852682.
#>  2               5   1968449.
#>  3              10   2138897.
#>  4              15   2312032.
#>  5              20   2407486.
#>  6              25   2423602.
#>  7              30   2585137.
#>  8              35   2969393.
#>  9              40   3041663.
#> 10              45   2809154.
#> # … with 11 more rows
…
We can then pass the contact model through to predict_contacts, along with the fairfield age population data, and some age breaks that we want to predict to.

set.seed(2022 - 09 - 06)
synthetic_contact_fairfield <- predict_contacts(
  model = contact_model,
  population = fairfield,
  age_breaks = c(seq(0, 85, by = 5), Inf)
)

synthetic_contact_fairfield
#> # A tibble: 324 × 3
#>    age_group_from age_group_to contacts
#>    <fct>          <fct>           <dbl>
#>  1 [0,5)          [0,5)         0.00213
#>  2 [0,5)          [5,10)        0.00360
#>  3 [0,5)          [10,15)       0.00305
#>  4 [0,5)          [15,20)       0.00444
#>  5 [0,5)          [20,25)       0.0110 
#>  6 [0,5)          [25,30)       0.0218 
#>  7 [0,5)          [30,35)       0.0317 
#>  8 [0,5)          [35,40)       0.0345 
#>  9 [0,5)          [40,45)       0.0341 
#> 10 [0,5)          [45,50)       0.0330 
#> # … with 314 more rows
…
Note that you need to use the exact LGA name - you can look up LGA names in the data set abs_lga_lookup:

abs_lga_lookup
#> # A tibble: 544 × 3
#>    state lga_code lga                  
#>    <chr>    <dbl> <chr>                
#>  1 NSW      10050 Albury (C)           
#>  2 NSW      10180 Armidale Regional (A)
#>  3 NSW      10250 Ballina (A)          
#>  4 NSW      10300 Balranald (A)        
#>  5 NSW      10470 Bathurst Regional (A)
#>  6 NSW      10500 Bayside (A)          
#>  7 NSW      10550 Bega Valley (A)      
#>  8 NSW      10600 Bellingen (A)        
#>  9 NSW      10650 Berrigan (A)         
#> 10 NSW      10750 Blacktown (C)        
#> # … with 534 more rows
…
