Example Pipeline • conmat
…
polymod_setting
#> 
#> ── Setting Data ────────────────────────────────────────────────────────────────
#> A list of <data.frame>s containing the number of contacts between ages in each
#> setting.
#> There are 86 age breaks, ranging 0-90 years, with an irregular year interval,
#> (on average, 1.05 years)
#> • home: a 8,787x5 <data.frame>
#> • work: a 8,787x5 <data.frame>
#> • school: a 8,787x5 <data.frame>
#> • other: a 8,787x5 <data.frame>
#> ℹ Access each <data.frame> with `x$name`
#> ℹ e.g., `x$home`
polymod_setting$home
#> # A tibble: 8,787 × 5
#>    setting age_from age_to contacts participants
#>    <chr>      <int>  <dbl>    <int>        <int>
#>  1 home           0      0       10           92
#>  2 home           0      1        7           92
#>  3 home           0      2       12           92
#>  4 home           0      3       14           92
#>  5 home           0      4       12           92
#>  6 home           0      5        6           92
#>  7 home           0      6        8           92
#>  8 home           0      7        9           92
#>  9 home           0      8        6           92
#> 10 home           0      9        6           92
#> # ℹ 8,777 more rows
polymod_population
#> # A tibble: 21 × 2 (conmat_population)
#>  - age: lower.age.limit
#>  - population: population
#>    lower.age.limit population
#>              <int>      <dbl>
#>  1               0   1898966.
#>  2               5   2017632.
#>  3              10   2192410.
#>  4              15   2369985.
#>  5              20   2467873.
#>  6              25   2484327.
#>  7              30   2649826.
#>  8              35   3043704.
#>  9              40   3117812.
#> 10              45   2879510.
#> # ℹ 11 more rows
…
polymod_setting_data
#> 
#> ── Setting Data ────────────────────────────────────────────────────────────────
#> A list of <data.frame>s containing the number of contacts between ages in each
#> setting.
#> There are 86 age breaks, ranging 0-90 years, with an irregular year interval,
#> (on average, 1.05 years)
#> • home: a 8,787x5 <data.frame>
#> • work: a 8,787x5 <data.frame>
#> • school: a 8,787x5 <data.frame>
#> • other: a 8,787x5 <data.frame>
#> ℹ Access each <data.frame> with `x$name`
#> ℹ e.g., `x$home`
polymod_population
#> # A tibble: 21 × 2 (conmat_population)
#>  - age: lower.age.limit
#>  - population: population
#>    lower.age.limit population
#>              <int>      <dbl>
#>  1               0   1898966.
#>  2               5   2017632.
#>  3              10   2192410.
#>  4              15   2369985.
#>  5              20   2467873.
#>  6              25   2484327.
#>  7              30   2649826.
#>  8              35   3043704.
#>  9              40   3117812.
#> 10              45   2879510.
#> # ℹ 11 more rows
…
