Getting Started • conmat
…
We can tidy the data up, filtering down to a specified location and
year with the age_population function:

nz_2015 <- age_population(
  data = world_data,
  location_col = country,
  location = "New Zealand",
  age_col = lower.age.limit,
  year_col = year,
  year = 2015
)

nz_2015
#> # A tibble: 21 × 5 (conmat_population)
#>  - age: lower.age.limit
#>  - population: population
#>    country      year population lower.age.limit upper.age.limit
#>    <chr>       <int>      <dbl>           <dbl>           <dbl>
#>  1 New Zealand  2015     308681               0               4
#>  2 New Zealand  2015     315632               5               9
#>  3 New Zealand  2015     297247              10              14
#>  4 New Zealand  2015     318932              15              19
#>  5 New Zealand  2015     339362              20              24
#>  6 New Zealand  2015     315914              25              29
#>  7 New Zealand  2015     287537              30              34
#>  8 New Zealand  2015     273539              35              39
#>  9 New Zealand  2015     312245              40              44
#> 10 New Zealand  2015     313312              45              49
#> # ℹ 11 more rows
…
The contact data is a data frame containing the age from and to, and
the number of contacts for each of the specified settings, “home”,
“work”, “school”, “other”, or “all” as well as the number of
participants. By default, polymod_contact_data contains
data from “all”, but we’re going to use the “work” set of data, as it
produces an interesting looking dataset. Each row contains survey
information of the number of contacts. Specifically, the number of
contacts from one age group to another age group, and then the number of
participants in that age group.

The survey data, polymod_survey_data contains the lower
age limit and the population in that age group.

polymod_survey_data
#> # A tibble: 21 × 2 (conmat_population)
#>  - age: lower.age.limit
#>  - population: population
#>    lower.age.limit population
#>              <int>      <dbl>
#>  1               0   1898966.
#>  2               5   2017632.
#>  3              10   2192410.
#>  4              15   2369985.
#>  5              20   2467873.
#>  6              25   2484327.
#>  7              30   2649826.
#>  8              35   3043704.
#>  9              40   3117812.
#> 10              45   2879510.
#> # ℹ 11 more rows
We also provide control over the POLYMOD data retrieved from
get_polymod_contact_data() via the arguments,
setting, country, and ages. These
allow you to specify the data to be only from certain settings or
countries or ages. See ?get_polymod_contact_data for more
details. Below is a brief example of this:

polymod_contact_data_belgium_0_10 <- get_polymod_contact_data(
  setting = "work",
  countries = "Belgium",
  ages = c(0, 5, 10)
)

polymod_contact_data_belgium_0_10
#> # A tibble: 3,437 × 5
#>    setting age_from age_to contacts participants
#>    <chr>      <int>  <dbl>    <int>        <int>
#>  1 work           0      0        0            5
#>  2 work           0      1        0            3
#>  3 work           0      2        0            2
#>  4 work           0      3        0            2
#>  5 work           0      4        0            1
#>  6 work           0      5        0            5
#>  7 work           0      7        0            1
#>  8 work           0     10        0            5
#>  9 work           0     11        0            1
#> 10 work           0     12        0            1
#> # ℹ 3,427 more rows

Similarly, you can control the population data, retrieving it only
for certain countries:

get_polymod_population(countries = "Belgium")
#> # A tibble: 21 × 2 (conmat_population)
#>  - age: lower.age.limit
#>  - population: population
#>    lower.age.limit population
#>              <int>      <dbl>
#>  1               0     583492
#>  2               5     593148
#>  3              10     632157
#>  4              15     626921
#>  5              20     649588
#>  6              25     663176
#>  7              30     705878
#>  8              35     773177
#>  9              40     823305
#> 10              45     779436
#> # ℹ 11 more rows
get_polymod_population(countries = "Finland")
#> # A tibble: 21 × 2 (conmat_population)
#>  - age: lower.age.limit
#>  - population: population
#>    lower.age.limit population
#>              <int>      <dbl>
#>  1               0     284683
#>  2               5     296753
#>  3              10     330425
#>  4              15     319947
#>  5              20     334180
#>  6              25     331510
#>  7              30     308108
#>  8              35     352962
#>  9              40     379090
#> 10              45     381713
#> # ℹ 11 more rows
…
set.seed(2022 - 10 - 04)
synthetic_contact_fairfield <- predict_contacts(
  model = contact_model,
  population = fairfield,
  age_breaks = c(seq(0, 30, by = 5), Inf)
)

synthetic_contact_fairfield
#> # A tibble: 49 × 3
#>    age_group_from age_group_to contacts
#>    <fct>          <fct>           <dbl>
#>  1 [0,5)          [0,5)        1.79e- 1
#>  2 [0,5)          [5,10)       1.61e- 1
#>  3 [0,5)          [10,15)      8.56e- 2
#>  4 [0,5)          [15,20)      5.69e- 2
#>  5 [0,5)          [20,25)      8.52e- 2
#>  6 [0,5)          [25,30)      1.80e- 1
#>  7 [0,5)          [30,Inf)     5.46e+18
#>  8 [5,10)         [0,5)        1.52e- 1
#>  9 [5,10)         [5,10)       2.51e- 1
#> 10 [5,10)         [10,15)      1.88e- 1
#> # ℹ 39 more rows
…
