…
- state:

  target Australian state name or a vector with multiple state names in
  its abbreviated form, such as "QLD", "NSW", or "TAS"

## Value

data set with information on the number of employed people belonging to
a particular age, its total population and the corresponding proportion.

## Examples

``` r
abs_age_work_state(state = "NSW")
#> # A tibble: 116 × 6
#>     year state   age employed_population total_population proportion
#>    <dbl> <chr> <dbl>               <dbl>            <dbl>      <dbl>
#>  1  2016 NSW       0                   0            87708          0
#>  2  2016 NSW       1                   0            92876          0
#>  3  2016 NSW       2                   0            93584          0
#>  4  2016 NSW       3                   0            95179          0
#>  5  2016 NSW       4                   0            95791          0
#>  6  2016 NSW       5                   0            95216          0
#>  7  2016 NSW       6                   0            96479          0
#>  8  2016 NSW       7                   0            95142          0
#>  9  2016 NSW       8                   0            95833          0
#> 10  2016 NSW       9                   0            95516          0
#> # ℹ 106 more rows
…
