…
## Examples

``` r
age_min <- 10
age_max <- 15
all_ages <- age_min:age_max
library(tidyr)
example_df <- expand_grid(
  age_from = all_ages,
  age_to = all_ages,
)
add_population_age_to(example_df)
#> # A tibble: 36 × 4
#>    age_from age_to pop_age_to intergenerational
#>       <int>  <int>      <dbl>             <int>
#>  1       10     10      0.161                 0
#>  2       10     11      0.163                 1
#>  3       10     12      0.165                 2
#>  4       10     13      0.168                 3
#>  5       10     14      0.170                 4
#>  6       10     15      0.173                 5
#>  7       11     10      0.161                 1
#>  8       11     11      0.163                 0
#>  9       11     12      0.165                 1
#> 10       11     13      0.168                 2
#> # ℹ 26 more rows
```
