Add features required for modelling to the dataset — add_modelling_features • conmat
…
    Examples

age_min <- 10
age_max <- 15
all_ages <- age_min:age_max
library(tidyr)
example_df <- expand_grid(
  age_from = all_ages,
  age_to = all_ages,
)
add_modelling_features(example_df)
#> # A tibble: 36 × 20
#>    age_from age_to pop_age_to intergen…¹ gam_a…² gam_a…³ gam_a…⁴ gam_a…⁵ gam_a…⁶
#>       <int>  <int>      <dbl>      <int>   <int>   <dbl>   <int>   <int>   <int>
#>  1       10     10      0.161          0       0       0     100      20      10
#>  2       10     11      0.163          1       1       1     110      21      11
#>  3       10     12      0.165          2       2       4     120      22      12
#>  4       10     13      0.168          3       3       9     130      23      13
#>  5       10     14      0.170          4       4      16     140      24      14
#>  6       10     15      0.173          5       5      25     150      25      15
#>  7       11     10      0.161          1       1       1     110      21      11
#>  8       11     11      0.163          0       0       0     121      22      11
#>  9       11     12      0.165          1       1       1     132      23      12
#> 10       11     13      0.168          2       2       4     143      24      13
#> # … with 26 more rows, 11 more variables: gam_age_pmin <int>,
#> #   school_fraction_age_from <dbl>, work_fraction_age_from <dbl>,
#> #   school_fraction_age_to <dbl>, work_fraction_age_to <dbl>,
#> #   school_probability <dbl>, work_probability <dbl>,
#> #   school_year_probability <dbl>, school_weighted_pop_fraction <dbl>,
#> #   log_contactable_population_school <dbl>, log_contactable_population <dbl>,
#> #   and abbreviated variable names ¹​intergenerational, ²​gam_age_offdiag, …
…
