Aggregate predicted contacts to specified age breaks — aggregate_predicted_contacts • conmat
…
 # We can predict the contact rate for Fairfield from the existing contact 
 # data, say, between the age groups of 0-15 in 5 year bins for school:
   
fairfield_contacts_1 <- predict_contacts_1y(
  model = polymod_setting_models$home,
  population = fairfield_abs_data,
  age_min = 0,
  age_max = 15
)
 
 fairfield_contacts_1
#> # A tibble: 256 × 4
#>    age_from age_to  contacts se_contacts
#>       <int>  <int> <dbl[1d]>   <dbl[1d]>
#>  1        0      0     0.577      0.0411
#>  2        0      1     0.543      0.0337
#>  3        0      2     0.507      0.0279
#>  4        0      3     0.471      0.0236
#>  5        0      4     0.436      0.0208
#>  6        0      5     0.402      0.0190
#>  7        0      6     0.371      0.0180
#>  8        0      7     0.343      0.0173
#>  9        0      8     0.318      0.0167
#> 10        0      9     0.296      0.0162
#> # … with 246 more rows
…
