…
# We can predict the contact rate for Fairfield from the existing contact
# data, say, between the age groups of 0-15 in 5 year bins for school:

fairfield_contacts_1 <- predict_contacts_1y(
  model = polymod_setting_models$home,
  population = fairfield,
  age_min = 0,
  age_max = 15
)

fairfield_contacts_1
#> # A tibble: 256 × 4
#>    age_from age_to  contacts se_contacts
#>       <dbl>  <dbl> <dbl[1d]>   <dbl[1d]>
#>  1        0      0     0.417      0.0348
#>  2        0      1     0.436      0.0306
#>  3        0      2     0.439      0.0263
#>  4        0      3     0.428      0.0222
#>  5        0      4     0.404      0.0187
#>  6        0      5     0.374      0.0161
#>  7        0      6     0.339      0.0144
#>  8        0      7     0.305      0.0132
#>  9        0      8     0.272      0.0124
#> 10        0      9     0.244      0.0117
#> # ℹ 246 more rows
…
