…
  target Australian local government area (LGA) name, such as "Fairfield
  (C)" or a vector with multiple lga names. See
  [`abs_lga_lookup()`](https://idem-lab.github.io/conmat/dev/reference/abs_lga_lookup.md)
  for list of lga names.

## Value

dataset with information on the number of educated people belonging to a
particular age, its total population and the corresponding proportion.

## Examples

``` r
abs_age_education_state(state = "VIC")
#> # A tibble: 116 × 6
#>     year state   age population_educated total_population proportion
#>    <dbl> <chr> <dbl>               <dbl>            <dbl>      <dbl>
#>  1  2016 VIC       0                   0            70920      0    
#>  2  2016 VIC       1                   0            74723      0    
#>  3  2016 VIC       2                   0            74475      0    
#>  4  2016 VIC       3               25354            76009      0.334
#>  5  2016 VIC       4               49763            75084      0.663
#>  6  2016 VIC       5               64489            73468      0.878
#>  7  2016 VIC       6               70717            74780      0.946
#>  8  2016 VIC       7               69543            73391      0.948
#>  9  2016 VIC       8               69673            73373      0.950
#> 10  2016 VIC       9               69894            73627      0.949
#> # ℹ 106 more rows
…
