…
``` r
age_min <- 10
age_max <- 15
all_ages <- age_min:age_max
library(tidyr)
example_df <- expand_grid(
  age_from = all_ages,
  age_to = all_ages,
)
example_df %>%
  add_population_age_to() %>%
  add_school_work_participation() %>%
  add_offset()
#> # A tibble: 36 × 14
#>    age_from age_to pop_age_to intergenerational school_fraction_age_from
#>       <dbl>  <dbl>      <dbl>             <int>                    <dbl>
#>  1       10     10      0.161                 0                    0.922
#>  2       10     11      0.163                 1                    0.922
#>  3       10     12      0.165                 2                    0.922
#>  4       10     13      0.168                 3                    0.922
#>  5       10     14      0.170                 4                    0.922
#>  6       10     15      0.173                 5                    0.922
#>  7       11     10      0.161                 1                    0.931
#>  8       11     11      0.163                 0                    0.931
#>  9       11     12      0.165                 1                    0.931
#> 10       11     13      0.168                 2                    0.931
#> # ℹ 26 more rows
#> # ℹ 9 more variables: school_fraction_age_to <dbl>, school_probability <dbl>,
#> #   school_year_probability <dbl>, school_weighted_pop_fraction <dbl>,
#> #   work_fraction_age_from <dbl>, work_fraction_age_to <dbl>,
#> #   work_probability <dbl>, log_contactable_population_school <dbl>,
#> #   log_contactable_population <dbl>
```
