Transmission probabilities of COVID19 from Eyre et al. — eyre_transmission_probabilities • conmat
…
case_age_5y
If case is between ages 0-4, in 5 year bins up to 100

contact_age_5y
If contact is between ages 0-4, in 5 year bins up
to 100

probability
probability of transmission. Value is 0 - 1

    Examples

eyre_transmission_probabilities
#> # A tibble: 40,804 × 6
#>    setting   case_age contact_age case_age_5y contact_age_5y probability
#>    <chr>        <int>       <int> <chr>       <chr>                <dbl>
#>  1 household        0           0 0-4         0-4                  0.195
#>  2 household        0           1 0-4         0-4                  0.195
#>  3 household        0           2 0-4         0-4                  0.195
#>  4 household        0           3 0-4         0-4                  0.195
#>  5 household        0           4 0-4         0-4                  0.195
#>  6 household        0           5 0-4         5-9                  0.196
#>  7 household        0           6 0-4         5-9                  0.198
#>  8 household        0           7 0-4         5-9                  0.198
#>  9 household        0           8 0-4         5-9                  0.199
#> 10 household        0           9 0-4         5-9                  0.201
#> # ℹ 40,794 more rows
…
