Fit a single GAM contact model to a dataset — fit_single_contact_model • conmat
…
    Examples

example_contact <- get_polymod_contact_data(setting = "home")
example_contact
#> # A tibble: 8,787 × 5
#>    setting age_from age_to contacts participants
#>    <chr>      <int>  <dbl>    <int>        <int>
#>  1 home           0      0       10           92
#>  2 home           0      1        7           92
#>  3 home           0      2       11           92
#>  4 home           0      3       15           92
#>  5 home           0      4       11           92
#>  6 home           0      5        6           92
#>  7 home           0      6        9           92
#>  8 home           0      7        9           92
#>  9 home           0      8        6           92
#> 10 home           0      9        6           92
#> # … with 8,777 more rows
…
