Return an interpolating function for populations in 1y age increments — get_age_population_function • conmat
…
    Examples

polymod_pop <- get_polymod_population()

polymod_pop
#> # A tibble: 21 × 2 (conmat_population)
#>  - age: lower.age.limit
#>  - population: population
#>    lower.age.limit population
#>              <int>      <dbl>
#>  1               0   1852682.
#>  2               5   1968449.
#>  3              10   2138897.
#>  4              15   2312032.
#>  5              20   2407486.
#>  6              25   2423602.
#>  7              30   2585137.
#>  8              35   2969393.
#>  9              40   3041663.
#> 10              45   2809154.
#> # … with 11 more rows
…
