…
## Examples

``` r
polymod_pop <- get_polymod_population()

polymod_pop
#> # A tibble: 21 × 2 (conmat_population)
#>  - age: lower.age.limit
#>  - population: population
#>    lower.age.limit population
#>              <int>      <dbl>
#>  1               0   1898966.
#>  2               5   2017632.
#>  3              10   2192410.
#>  4              15   2369985.
#>  5              20   2467873.
#>  6              25   2484327.
#>  7              30   2649826.
#>  8              35   3043704.
#>  9              40   3117812.
#> 10              45   2879510.
#> # ℹ 11 more rows
…
