Example Pipeline • conmat
…
We then extrapolate this using the full POLYMOD data.

synthetic_fairfield_5y <- extrapolate_polymod(
  population = fairfield_population
)

By full POLYMOD data, we mean these data:

polymod_setting <- get_polymod_setting_data()

polymod_population <- get_polymod_population()

polymod_setting
#> $home
#> # A tibble: 8,787 × 5
#>    setting age_from age_to contacts participants
#>    <chr>      <int>  <dbl>    <int>        <int>
#>  1 home           0      0       10           92
#>  2 home           0      1        7           92
#>  3 home           0      2       12           92
#>  4 home           0      3       14           92
#>  5 home           0      4       12           92
#>  6 home           0      5        6           92
#>  7 home           0      6        8           92
#>  8 home           0      7        9           92
#>  9 home           0      8        6           92
#> 10 home           0      9        6           92
#> # … with 8,777 more rows
#> 
#> $work
#> # A tibble: 8,787 × 5
#>    setting age_from age_to contacts participants
#>    <chr>      <int>  <dbl>    <int>        <int>
#>  1 work           0      0        0           92
#>  2 work           0      1        0           92
#>  3 work           0      2        0           92
#>  4 work           0      3        0           92
#>  5 work           0      4        0           92
#>  6 work           0      5        0           92
#>  7 work           0      6        0           92
#>  8 work           0      7        0           92
#>  9 work           0      8        0           92
#> 10 work           0      9        0           92
#> # … with 8,777 more rows
#> 
#> $school
#> # A tibble: 8,787 × 5
#>    setting age_from age_to contacts participants
#>    <chr>      <int>  <dbl>    <int>        <int>
#>  1 school         0      0       13           92
#>  2 school         0      1        1           92
#>  3 school         0      2        5           92
#>  4 school         0      3        1           92
#>  5 school         0      4        1           92
#>  6 school         0      5        3           92
#>  7 school         0      6        0           92
#>  8 school         0      7        0           92
#>  9 school         0      8        0           92
#> 10 school         0      9        0           92
#> # … with 8,777 more rows
#> 
#> $other
#> # A tibble: 8,787 × 5
#>    setting age_from age_to contacts participants
#>    <chr>      <int>  <dbl>    <int>        <int>
#>  1 other          0      0        7           92
#>  2 other          0      1        6           92
#>  3 other          0      2       12           92
#>  4 other          0      3       12           92
#>  5 other          0      4        4           92
#>  6 other          0      5        4           92
#>  7 other          0      6        4           92
#>  8 other          0      7        5           92
#>  9 other          0      8        2           92
#> 10 other          0      9        3           92
#> # … with 8,777 more rows
polymod_population
#> # A tibble: 21 × 2
#>    lower.age.limit population
#>              <int>      <dbl>
#>  1               0   1852682.
#>  2               5   1968449.
#>  3              10   2138897.
#>  4              15   2312032.
#>  5              20   2407486.
#>  6              25   2423602.
#>  7              30   2585137.
#>  8              35   2969393.
#>  9              40   3041663.
#> 10              45   2809154.
#> # … with 11 more rows
…
