getting-started • conmat
…
# build synthetic age-structured contact matrices with GAMs
# analysis of polymod data
# get polymod population for later use
polymod_population <- get_polymod_population()
polymod_population
#> # A tibble: 21 × 2
#>    lower.age.limit population
#>              <int>      <dbl>
#>  1               0   1841420.
#>  2               5   1950666.
#>  3              10   2122856.
#>  4              15   2323822.
#>  5              20   2406141.
#>  6              25   2377541.
#>  7              30   2552587.
#>  8              35   2982293.
#>  9              40   3044427.
#> 10              45   2828202.
#> # … with 11 more rows
…
