…
combined_solutions <- bind_rows(
  "non_structured" = ungrouped_structure,
  "age_structured" = grouped_structure,
  .id = "type"
) %>%
  mutate(
    name = factor(name, levels = c("S", "I", "R"))
  )

combined_solutions
#> # A tibble: 1,206 × 4
#>    type            time name     value
#>    <chr>          <dbl> <fct>    <dbl>
#>  1 non_structured   0   S     8991    
#>  2 non_structured   0   I        9    
#>  3 non_structured   0   R        0    
#>  4 non_structured   0.1 S     8989.   
#>  5 non_structured   0.1 I        9.75 
#>  6 non_structured   0.1 R        0.937
#>  7 non_structured   0.2 S     8987.   
#>  8 non_structured   0.2 I       10.6  
#>  9 non_structured   0.2 R        1.95 
#> 10 non_structured   0.3 S     8986.   
#> # ℹ 1,196 more rows
```
…
germany_soln_long <- germany_soln %>%
  tidy_ode() %>%
  mutate(type = "age_structured")
#> `summarise()` has regrouped the output.
#> ℹ Summaries were computed grouped by time and parent_state.
#> ℹ Output is grouped by time.
#> ℹ Use `summarise(.groups = "drop_last")` to silence this message.
#> ℹ Use `summarise(.by = c(time, parent_state))` for per-operation grouping
#>   (`?dplyr::dplyr_by`) instead.

germany_soln_long
#> # A tibble: 3,003 × 4
#>     time name        value type          
#>    <dbl> <chr>       <dbl> <chr>         
#>  1   0   I           16    age_structured
#>  2   0   R            0    age_structured
#>  3   0   S     81707799    age_structured
#>  4   0.1 I           18.5  age_structured
#>  5   0.1 R            1.72 age_structured
#>  6   0.1 S     81707795.   age_structured
#>  7   0.2 I           21.5  age_structured
#>  8   0.2 R            3.72 age_structured
#>  9   0.2 S     81707790.   age_structured
#> 10   0.3 I           24.9  age_structured
#> # ℹ 2,993 more rows
```
…
